<svg xmlns="http://www.w3.org/2000/svg" width="21.413" height="14.815" viewBox="0 0 21.413 14.815">
    <g data-name="Group 3484">
        <path data-name="Path 60" d="M8507.794 154.745v-5.325h-6.2l-1.742 2.351h-8.707v11.964" style="fill:none;stroke:#eac282;opacity:.5" transform="translate(-8490.647 -148.92)"/>
        <path data-name="Path 59" d="m8491.289 165.673 5.161-9.56h15.65l-4.484 9.56z" transform="translate(-8490.688 -150.858)" style="fill:#eac282"/>
    </g>
</svg>
