<svg xmlns="http://www.w3.org/2000/svg" width="18.611" height="18.611" viewBox="0 0 18.611 18.611">
    <g fill-rule="evenodd">
        <path fill="#e50019" d="M371.939 2570.3a9.306 9.306 0 1 1-9.306 9.306 9.324 9.324 0 0 1 9.306-9.306zm-4.62 3.407l10.518 10.518a7.491 7.491 0 0 0-10.518-10.518zm9.24 11.8l-10.518-10.518a7.491 7.491 0 0 0 10.518 10.518z" transform="translate(-362.633 -2570.305)"/>
        <path d="M454.421 2676.2s1.361 0 2.151-.021c.34-.009.483 0 .536.045.006.005.054.682.1.844.107.389.245.75.737.715.649-.045.835-.942.957-1.429a13.838 13.838 0 0 0 .42-3.138c.02-.819-.792-1.056-.87-2.095-.073-.984-.626-1.2-1.548-1.441a15.385 15.385 0 0 0-2.372-.3 13.306 13.306 0 0 0-2.515.3c-.894.238-1.429.458-1.5 1.441-.075 1.039-.862 1.276-.843 2.095a14.264 14.264 0 0 0 .407 3.138c.118.486.3 1.384.928 1.429.476.034.61-.326.714-.715.043-.163.089-.839.1-.844.051-.044.19-.054.519-.045.766.022 2.085.021 2.085.021zm.622-5.427c-.139-.158-.533-.183-.634.025-.355.729-1.708.806-2.4.663-.335-.07-.473-.279-.286-.518.453-.578 2.212-.651 2.821-.663a4.91 4.91 0 0 1 2.741.639c.269.213.317.609-.082.712a2.02 2.02 0 0 1-2.163-.858zm-2.889 2.15h1.868a.265.265 0 0 1 .26.268v.08a.265.265 0 0 1-.26.269h-1.868a.265.265 0 0 1-.26-.269v-.08a.265.265 0 0 1 .26-.268zm.2 1.314h4.346c.236 0 .429.091.429.2v.211c0 .112-.193.2-.429.2h-4.349c-.236 0-.429-.091-.429-.2v-.211c0-.112.193-.2.429-.2zm2.91-1.314h1.868a.265.265 0 0 1 .26.268v.08a.265.265 0 0 1-.26.269h-1.868a.265.265 0 0 1-.26-.269v-.08a.265.265 0 0 1 .26-.268zm2.833.316h.551v.364h-.548v-.364zm-7.5 0h.551v.364h-.551z" transform="translate(-362.633 -2570.305) translate(-82.558 -93.967)"/>
    </g>
</svg>
