<svg xmlns="http://www.w3.org/2000/svg" width="14.449" height="19.268" viewBox="0 0 14.449 19.268">
  <g id="Group_2141" data-name="Group 2141" transform="translate(-18327.35 1667.783)">
    <path id="Subtraction_8" data-name="Subtraction 8" d="M18317.818-3232.407h-12.041a1.192,1.192,0,0,1-1.2-1.2v-14.45a1.206,1.206,0,0,1,1.2-1.2h1.2v1.8a1.809,1.809,0,0,0,1.807,1.807h6.021a1.809,1.809,0,0,0,1.809-1.807v-1.8h1.2a1.192,1.192,0,0,1,1.205,1.2v14.45A1.192,1.192,0,0,1,18317.818-3232.407Zm-10.539-1.9h0Zm1.785-7.508a.714.714,0,0,0-.568.363.333.333,0,0,0-.047.313l2.285,4.271a.58.58,0,0,0,.486.235.446.446,0,0,0,.42-.235c.855-2.169,5.445-7.238,5.641-7.452l.01-.009a.146.146,0,0,0,.008-.156.287.287,0,0,0-.248-.193.225.225,0,0,0-.088.023,15.835,15.835,0,0,0-5.723,4.744l-.023-.022a21.94,21.94,0,0,0-1.932-1.821A.413.413,0,0,0,18309.064-3241.814Zm5.742-5.043h-6.021a.61.61,0,0,1-.6-.607v-2.4a.6.6,0,0,1,.6-.6h1.311a1.811,1.811,0,0,1,1.7-1.2,1.8,1.8,0,0,1,1.7,1.2h1.309a.6.6,0,0,1,.6.6v2.4A.606.606,0,0,1,18314.807-3246.857Z" transform="translate(22.775 1583.892)"/>
  </g>
</svg>
