<svg width="12" height="13" viewBox="0 0 12 13" fill="none" xmlns="http://www.w3.org/2000/svg">
<path d="M12 0.464286V4.17857C12 4.30171 11.9548 4.4198 11.8745 4.50687C11.7941 4.59394 11.6851 4.64286 11.5714 4.64286C11.4578 4.64286 11.3488 4.59394 11.2684 4.50687C11.188 4.4198 11.1429 4.30171 11.1429 4.17857V1.58321L5.05286 8.25964C5.01269 8.3028 4.9808 8.35415 4.95905 8.41073C4.93729 8.46731 4.92609 8.52799 4.92609 8.58929C4.92609 8.65058 4.93729 8.71126 4.95905 8.76784C4.9808 8.82442 5.01269 8.87577 5.05286 8.91893C5.0927 8.96244 5.1401 8.99699 5.19232 9.02056C5.24455 9.04413 5.30057 9.05626 5.35714 9.05626C5.41372 9.05626 5.46974 9.04413 5.52196 9.02056C5.57419 8.99699 5.62159 8.96244 5.66143 8.91893L10.2857 3.71429V11.6071C10.2857 11.9766 10.1503 12.3308 9.90914 12.592C9.66802 12.8533 9.34099 13 9 13H1.28571C0.944722 13 0.617695 12.8533 0.376577 12.592C0.135459 12.3308 0 11.9766 0 11.6071V2.78571C0 2.53944 0.0903058 2.30326 0.251051 2.12912C0.411797 1.95497 0.629814 1.85714 0.857143 1.85714H9C9.19156 1.85837 9.38045 1.90596 9.55286 1.99643L10.5386 0.928571H8.14286C8.02919 0.928571 7.92018 0.879656 7.83981 0.792585C7.75944 0.705515 7.71429 0.587422 7.71429 0.464286C7.71429 0.341149 7.75944 0.223057 7.83981 0.135986C7.92018 0.0489157 8.02919 0 8.14286 0H11.5714C11.6851 0 11.7941 0.0489157 11.8745 0.135986C11.9548 0.223057 12 0.341149 12 0.464286Z" fill="white"/>
</svg>
